# Blender v2.73 (sub 0) OBJ File: 'pieces.blend'
# www.blender.org
mtllib pyramid.mtl
o Plane.001_Plane.002
v -0.400000 0.000000 0.400000
v 0.400000 0.000000 0.400000
v -0.400000 0.000000 -0.400000
v 0.400000 0.000000 -0.400000
v 0.000000 0.800000 0.000000
v 0.400000 0.000000 0.000000
v 0.000000 0.000000 0.400000
v -0.400000 0.000000 0.000000
v 0.000000 0.000000 -0.400000
vt 0.000000 0.000000
vt 0.500000 0.000000
vt 1.000000 0.000000
vt 1.000000 0.500000
vt 1.000000 1.000000
vt 0.500000 1.000000
vt 0.000000 1.000000
vt 0.000000 0.500000
usemtl None
s off
f 1/1 8/2 3/3 9/4 4/5 6/6 2/7 7/8
f 9/1 3/3 5/5
f 6/1 4/3 5/5
f 7/1 2/3 5/5
f 8/1 1/3 5/5
f 2/7 6/1 5/5
f 3/7 8/1 5/5
f 1/7 7/1 5/5
f 4/7 9/1 5/5
