# Blender v2.73 (sub 0) OBJ File: 'pieces.blend'
# www.blender.org
mtllib torus.mtl
o Torus
v 0.000000 -2.000000 0.000000
v 0.100000 -1.973205 0.000000
v 0.173205 -1.900000 0.000000
v 0.200000 -1.800000 0.000000
v 0.173205 -1.700000 0.000000
v 0.100000 -1.626795 0.000000
v 0.000000 -1.600000 0.000000
v -0.100000 -1.626795 0.000000
v -0.173205 -1.700000 0.000000
v -0.200000 -1.800000 0.000000
v -0.173205 -1.900000 0.000000
v -0.100000 -1.973205 0.000000
v 0.000000 -1.982890 -0.261052
v 0.100000 -1.956324 -0.257555
v 0.173205 -1.883745 -0.248000
v 0.200000 -1.784601 -0.234947
v 0.173205 -1.685456 -0.221894
v 0.100000 -1.612878 -0.212339
v 0.000000 -1.586312 -0.208842
v -0.100000 -1.612878 -0.212339
v -0.173205 -1.685456 -0.221894
v -0.200000 -1.784601 -0.234947
v -0.173205 -1.883745 -0.248000
v -0.100000 -1.956324 -0.257555
v 0.000000 -1.931852 -0.517638
v 0.100000 -1.905970 -0.510703
v 0.173205 -1.835259 -0.491756
v 0.200000 -1.738667 -0.465874
v 0.173205 -1.642074 -0.439992
v 0.100000 -1.571363 -0.421045
v 0.000000 -1.545481 -0.414110
v -0.100000 -1.571363 -0.421045
v -0.173205 -1.642074 -0.439992
v -0.200000 -1.738667 -0.465874
v -0.173205 -1.835259 -0.491756
v -0.100000 -1.905970 -0.510703
v 0.000000 -1.847759 -0.765367
v 0.100000 -1.823004 -0.755113
v 0.173205 -1.755371 -0.727098
v 0.200000 -1.662983 -0.688830
v 0.173205 -1.570595 -0.650562
v 0.100000 -1.502963 -0.622547
v 0.000000 -1.478207 -0.612293
v -0.100000 -1.502963 -0.622547
v -0.173205 -1.570595 -0.650562
v -0.200000 -1.662983 -0.688830
v -0.173205 -1.755371 -0.727098
v -0.100000 -1.823004 -0.755113
v 0.000000 -1.732051 -1.000000
v 0.100000 -1.708845 -0.986603
v 0.173205 -1.645448 -0.950000
v 0.200000 -1.558846 -0.900000
v 0.173205 -1.472243 -0.850000
v 0.100000 -1.408846 -0.813398
v 0.000000 -1.385640 -0.800000
v -0.100000 -1.408846 -0.813398
v -0.173205 -1.472243 -0.850000
v -0.200000 -1.558846 -0.900000
v -0.173205 -1.645448 -0.950000
v -0.100000 -1.708845 -0.986603
v 0.000000 -1.586707 -1.217523
v 0.100000 -1.565449 -1.201211
v 0.173205 -1.507372 -1.156647
v 0.200000 -1.428036 -1.095770
v 0.173205 -1.348701 -1.034894
v 0.100000 -1.290623 -0.990330
v 0.000000 -1.269365 -0.974018
v -0.100000 -1.290623 -0.990330
v -0.173205 -1.348701 -1.034894
v -0.200000 -1.428036 -1.095770
v -0.173205 -1.507372 -1.156647
v -0.100000 -1.565449 -1.201211
v 0.000000 -1.414213 -1.414214
v 0.100000 -1.395267 -1.395267
v 0.173205 -1.343503 -1.343503
v 0.200000 -1.272792 -1.272792
v 0.173205 -1.202081 -1.202082
v 0.100000 -1.150318 -1.150318
v 0.000000 -1.131371 -1.131371
v -0.100000 -1.150318 -1.150318
v -0.173205 -1.202081 -1.202082
v -0.200000 -1.272792 -1.272792
v -0.173205 -1.343503 -1.343503
v -0.100000 -1.395267 -1.395267
v 0.000000 -1.217523 -1.586706
v 0.100000 -1.201211 -1.565449
v 0.173205 -1.156647 -1.507371
v 0.200000 -1.095771 -1.428036
v 0.173205 -1.034894 -1.348700
v 0.100000 -0.990330 -1.290623
v 0.000000 -0.974018 -1.269365
v -0.100000 -0.990330 -1.290623
v -0.173205 -1.034894 -1.348700
v -0.200000 -1.095771 -1.428036
v -0.173205 -1.156647 -1.507371
v -0.100000 -1.201211 -1.565449
v 0.000000 -1.000000 -1.732051
v 0.100000 -0.986602 -1.708846
v 0.173205 -0.950000 -1.645448
v 0.200000 -0.900000 -1.558846
v 0.173205 -0.850000 -1.472243
v 0.100000 -0.813397 -1.408846
v 0.000000 -0.800000 -1.385641
v -0.100000 -0.813397 -1.408846
v -0.173205 -0.850000 -1.472243
v -0.200000 -0.900000 -1.558846
v -0.173205 -0.950000 -1.645448
v -0.100000 -0.986602 -1.708846
v 0.000000 -0.765367 -1.847759
v 0.100000 -0.755113 -1.823003
v 0.173205 -0.727099 -1.755371
v 0.200000 -0.688830 -1.662983
v 0.173205 -0.650562 -1.570595
v 0.100000 -0.622548 -1.502962
v 0.000000 -0.612294 -1.478207
v -0.100000 -0.622548 -1.502962
v -0.173205 -0.650562 -1.570595
v -0.200000 -0.688830 -1.662983
v -0.173205 -0.727099 -1.755371
v -0.100000 -0.755113 -1.823003
v 0.000000 -0.517638 -1.931852
v 0.100000 -0.510703 -1.905970
v 0.173205 -0.491756 -1.835259
v 0.200000 -0.465874 -1.738667
v 0.173205 -0.439992 -1.642074
v 0.100000 -0.421045 -1.571363
v 0.000000 -0.414110 -1.545481
v -0.100000 -0.421045 -1.571363
v -0.173205 -0.439992 -1.642074
v -0.200000 -0.465874 -1.738667
v -0.173205 -0.491756 -1.835259
v -0.100000 -0.510703 -1.905970
v 0.000000 -0.261052 -1.982890
v 0.100000 -0.257555 -1.956324
v 0.173205 -0.248000 -1.883745
v 0.200000 -0.234947 -1.784601
v 0.173205 -0.221894 -1.685456
v 0.100000 -0.212339 -1.612877
v 0.000000 -0.208842 -1.586312
v -0.100000 -0.212339 -1.612877
v -0.173205 -0.221894 -1.685456
v -0.200000 -0.234947 -1.784601
v -0.173205 -0.248000 -1.883745
v -0.100000 -0.257555 -1.956324
v 0.000000 -0.000000 -2.000000
v 0.100000 -0.000000 -1.973205
v 0.173205 -0.000000 -1.900000
v 0.200000 -0.000000 -1.800000
v 0.173205 -0.000000 -1.700000
v 0.100000 -0.000000 -1.626795
v 0.000000 -0.000000 -1.600000
v -0.100000 -0.000000 -1.626795
v -0.173205 -0.000000 -1.700000
v -0.200000 -0.000000 -1.800000
v -0.173205 -0.000000 -1.900000
v -0.100000 -0.000000 -1.973205
v -0.000000 0.261053 -1.982890
v 0.100000 0.257555 -1.956324
v 0.173205 0.248000 -1.883745
v 0.200000 0.234948 -1.784601
v 0.173205 0.221895 -1.685456
v 0.100000 0.212340 -1.612877
v -0.000000 0.208842 -1.586312
v -0.100000 0.212340 -1.612877
v -0.173205 0.221895 -1.685456
v -0.200000 0.234948 -1.784601
v -0.173205 0.248000 -1.883745
v -0.100000 0.257555 -1.956324
v -0.000000 0.517638 -1.931852
v 0.100000 0.510703 -1.905970
v 0.173205 0.491756 -1.835259
v 0.200000 0.465874 -1.738667
v 0.173205 0.439992 -1.642074
v 0.100000 0.421045 -1.571363
v -0.000000 0.414110 -1.545481
v -0.100000 0.421045 -1.571363
v -0.173205 0.439992 -1.642074
v -0.200000 0.465874 -1.738667
v -0.173205 0.491756 -1.835259
v -0.100000 0.510703 -1.905970
v -0.000000 0.765367 -1.847759
v 0.100000 0.755113 -1.823004
v 0.173205 0.727099 -1.755371
v 0.200000 0.688830 -1.662983
v 0.173205 0.650562 -1.570595
v 0.100000 0.622548 -1.502962
v -0.000000 0.612294 -1.478207
v -0.100000 0.622548 -1.502962
v -0.173205 0.650562 -1.570595
v -0.200000 0.688830 -1.662983
v -0.173205 0.727099 -1.755371
v -0.100000 0.755113 -1.823004
v -0.000000 1.000000 -1.732051
v 0.100000 0.986602 -1.708846
v 0.173205 0.950000 -1.645448
v 0.200000 0.900000 -1.558846
v 0.173205 0.850000 -1.472243
v 0.100000 0.813397 -1.408846
v -0.000000 0.800000 -1.385641
v -0.100000 0.813397 -1.408846
v -0.173205 0.850000 -1.472243
v -0.200000 0.900000 -1.558846
v -0.173205 0.950000 -1.645448
v -0.100000 0.986602 -1.708846
v -0.000000 1.217523 -1.586707
v 0.100000 1.201211 -1.565449
v 0.173205 1.156647 -1.507371
v 0.200000 1.095771 -1.428036
v 0.173205 1.034894 -1.348701
v 0.100000 0.990330 -1.290623
v -0.000000 0.974018 -1.269365
v -0.100000 0.990330 -1.290623
v -0.173205 1.034894 -1.348701
v -0.200000 1.095771 -1.428036
v -0.173205 1.156647 -1.507371
v -0.100000 1.201211 -1.565449
v -0.000000 1.414214 -1.414213
v 0.100000 1.395267 -1.395266
v 0.173205 1.343503 -1.343503
v 0.200000 1.272792 -1.272792
v 0.173205 1.202082 -1.202081
v 0.100000 1.150318 -1.150317
v -0.000000 1.131371 -1.131370
v -0.100000 1.150318 -1.150317
v -0.173205 1.202082 -1.202081
v -0.200000 1.272792 -1.272792
v -0.173205 1.343503 -1.343503
v -0.100000 1.395267 -1.395266
v -0.000000 1.586707 -1.217523
v 0.100000 1.565449 -1.201211
v 0.173205 1.507371 -1.156647
v 0.200000 1.428036 -1.095771
v 0.173205 1.348701 -1.034894
v 0.100000 1.290623 -0.990330
v -0.000000 1.269365 -0.974018
v -0.100000 1.290623 -0.990330
v -0.173205 1.348701 -1.034894
v -0.200000 1.428036 -1.095771
v -0.173205 1.507371 -1.156647
v -0.100000 1.565449 -1.201211
v -0.000000 1.732051 -1.000001
v 0.100000 1.708845 -0.986603
v 0.173205 1.645448 -0.950001
v 0.200000 1.558846 -0.900000
v 0.173205 1.472243 -0.850000
v 0.100000 1.408846 -0.813398
v -0.000000 1.385640 -0.800000
v -0.100000 1.408846 -0.813398
v -0.173205 1.472243 -0.850000
v -0.200000 1.558846 -0.900000
v -0.173205 1.645448 -0.950001
v -0.100000 1.708845 -0.986603
v -0.000000 1.847759 -0.765367
v 0.100000 1.823004 -0.755113
v 0.173205 1.755371 -0.727099
v 0.200000 1.662983 -0.688830
v 0.173205 1.570595 -0.650562
v 0.100000 1.502962 -0.622548
v -0.000000 1.478207 -0.612294
v -0.100000 1.502962 -0.622548
v -0.173205 1.570595 -0.650562
v -0.200000 1.662983 -0.688830
v -0.173205 1.755371 -0.727099
v -0.100000 1.823004 -0.755113
v -0.000000 1.931852 -0.517638
v 0.100000 1.905970 -0.510703
v 0.173205 1.835259 -0.491756
v 0.200000 1.738667 -0.465874
v 0.173205 1.642074 -0.439992
v 0.100000 1.571363 -0.421045
v -0.000000 1.545481 -0.414110
v -0.100000 1.571363 -0.421045
v -0.173205 1.642074 -0.439992
v -0.200000 1.738667 -0.465874
v -0.173205 1.835259 -0.491756
v -0.100000 1.905970 -0.510703
v -0.000000 1.982890 -0.261053
v 0.100000 1.956324 -0.257555
v 0.173205 1.883745 -0.248000
v 0.200000 1.784601 -0.234947
v 0.173205 1.685456 -0.221895
v 0.100000 1.612878 -0.212340
v -0.000000 1.586312 -0.208842
v -0.100000 1.612878 -0.212340
v -0.173205 1.685456 -0.221895
v -0.200000 1.784601 -0.234947
v -0.173205 1.883745 -0.248000
v -0.100000 1.956324 -0.257555
v -0.000000 2.000000 -0.000000
v 0.100000 1.973205 -0.000000
v 0.173205 1.900000 -0.000000
v 0.200000 1.800000 -0.000000
v 0.173205 1.700000 -0.000000
v 0.100000 1.626795 -0.000000
v -0.000000 1.600000 -0.000000
v -0.100000 1.626795 -0.000000
v -0.173205 1.700000 -0.000000
v -0.200000 1.800000 -0.000000
v -0.173205 1.900000 -0.000000
v -0.100000 1.973205 -0.000000
v -0.000000 1.982890 0.261053
v 0.100000 1.956324 0.257555
v 0.173205 1.883745 0.248000
v 0.200000 1.784601 0.234947
v 0.173205 1.685456 0.221895
v 0.100000 1.612878 0.212340
v -0.000000 1.586312 0.208842
v -0.100000 1.612878 0.212340
v -0.173205 1.685456 0.221895
v -0.200000 1.784601 0.234947
v -0.173205 1.883745 0.248000
v -0.100000 1.956324 0.257555
v -0.000000 1.931852 0.517638
v 0.100000 1.905970 0.510703
v 0.173205 1.835259 0.491756
v 0.200000 1.738667 0.465874
v 0.173205 1.642074 0.439992
v 0.100000 1.571363 0.421045
v -0.000000 1.545481 0.414110
v -0.100000 1.571363 0.421045
v -0.173205 1.642074 0.439992
v -0.200000 1.738667 0.465874
v -0.173205 1.835259 0.491756
v -0.100000 1.905970 0.510703
v -0.000000 1.847759 0.765366
v 0.100000 1.823004 0.755112
v 0.173205 1.755371 0.727098
v 0.200000 1.662983 0.688829
v 0.173205 1.570595 0.650561
v 0.100000 1.502963 0.622547
v -0.000000 1.478207 0.612293
v -0.100000 1.502963 0.622547
v -0.173205 1.570595 0.650561
v -0.200000 1.662983 0.688829
v -0.173205 1.755371 0.727098
v -0.100000 1.823004 0.755112
v -0.000000 1.732051 1.000000
v 0.100000 1.708846 0.986602
v 0.173205 1.645448 0.950000
v 0.200000 1.558846 0.900000
v 0.173205 1.472243 0.850000
v 0.100000 1.408846 0.813397
v -0.000000 1.385641 0.800000
v -0.100000 1.408846 0.813397
v -0.173205 1.472243 0.850000
v -0.200000 1.558846 0.900000
v -0.173205 1.645448 0.950000
v -0.100000 1.708846 0.986602
v -0.000000 1.586707 1.217523
v 0.100000 1.565449 1.201211
v 0.173205 1.507371 1.156647
v 0.200000 1.428036 1.095771
v 0.173205 1.348701 1.034894
v 0.100000 1.290623 0.990330
v -0.000000 1.269365 0.974018
v -0.100000 1.290623 0.990330
v -0.173205 1.348701 1.034894
v -0.200000 1.428036 1.095771
v -0.173205 1.507371 1.156647
v -0.100000 1.565449 1.201211
v -0.000000 1.414214 1.414213
v 0.100000 1.395267 1.395266
v 0.173205 1.343503 1.343503
v 0.200000 1.272792 1.272792
v 0.173205 1.202082 1.202081
v 0.100000 1.150318 1.150317
v -0.000000 1.131371 1.131370
v -0.100000 1.150318 1.150317
v -0.173205 1.202082 1.202081
v -0.200000 1.272792 1.272792
v -0.173205 1.343503 1.343503
v -0.100000 1.395267 1.395266
v -0.000000 1.217524 1.586706
v 0.100000 1.201212 1.565448
v 0.173205 1.156648 1.507371
v 0.200000 1.095771 1.428035
v 0.173205 1.034895 1.348700
v 0.100000 0.990331 1.290623
v -0.000000 0.974019 1.269365
v -0.100000 0.990331 1.290623
v -0.173205 1.034895 1.348700
v -0.200000 1.095771 1.428035
v -0.173205 1.156648 1.507371
v -0.100000 1.201212 1.565448
v -0.000000 1.000000 1.732051
v 0.100000 0.986602 1.708846
v 0.173205 0.950000 1.645448
v 0.200000 0.900000 1.558846
v 0.173205 0.850000 1.472243
v 0.100000 0.813397 1.408846
v -0.000000 0.800000 1.385641
v -0.100000 0.813397 1.408846
v -0.173205 0.850000 1.472243
v -0.200000 0.900000 1.558846
v -0.173205 0.950000 1.645448
v -0.100000 0.986602 1.708846
v -0.000000 0.765367 1.847759
v 0.100000 0.755113 1.823004
v 0.173205 0.727099 1.755371
v 0.200000 0.688830 1.662983
v 0.173205 0.650562 1.570595
v 0.100000 0.622548 1.502962
v -0.000000 0.612294 1.478207
v -0.100000 0.622548 1.502962
v -0.173205 0.650562 1.570595
v -0.200000 0.688830 1.662983
v -0.173205 0.727099 1.755371
v -0.100000 0.755113 1.823004
v -0.000000 0.517639 1.931852
v 0.100000 0.510704 1.905970
v 0.173205 0.491757 1.835259
v 0.200000 0.465875 1.738666
v 0.173205 0.439993 1.642074
v 0.100000 0.421046 1.571363
v -0.000000 0.414111 1.545481
v -0.100000 0.421046 1.571363
v -0.173205 0.439993 1.642074
v -0.200000 0.465875 1.738666
v -0.173205 0.491757 1.835259
v -0.100000 0.510704 1.905970
v -0.000000 0.261054 1.982889
v 0.100000 0.257556 1.956324
v 0.173205 0.248001 1.883745
v 0.200000 0.234948 1.784600
v 0.173205 0.221896 1.685456
v 0.100000 0.212340 1.612877
v -0.000000 0.208843 1.586311
v -0.100000 0.212340 1.612877
v -0.173205 0.221896 1.685456
v -0.200000 0.234948 1.784600
v -0.173205 0.248001 1.883745
v -0.100000 0.257556 1.956324
v 0.000000 -0.000000 2.000000
v 0.100000 -0.000000 1.973205
v 0.173205 -0.000000 1.900000
v 0.200000 -0.000000 1.800000
v 0.173205 -0.000000 1.700000
v 0.100000 -0.000000 1.626795
v 0.000000 -0.000000 1.600000
v -0.100000 -0.000000 1.626795
v -0.173205 -0.000000 1.700000
v -0.200000 -0.000000 1.800000
v -0.173205 -0.000000 1.900000
v -0.100000 -0.000000 1.973205
v 0.000000 -0.261052 1.982890
v 0.100000 -0.257555 1.956324
v 0.173205 -0.248000 1.883745
v 0.200000 -0.234947 1.784601
v 0.173205 -0.221894 1.685456
v 0.100000 -0.212339 1.612877
v 0.000000 -0.208842 1.586312
v -0.100000 -0.212339 1.612877
v -0.173205 -0.221894 1.685456
v -0.200000 -0.234947 1.784601
v -0.173205 -0.248000 1.883745
v -0.100000 -0.257555 1.956324
v 0.000000 -0.517637 1.931852
v 0.100000 -0.510702 1.905970
v 0.173205 -0.491755 1.835259
v 0.200000 -0.465873 1.738667
v 0.173205 -0.439992 1.642074
v 0.100000 -0.421045 1.571363
v 0.000000 -0.414110 1.545481
v -0.100000 -0.421045 1.571363
v -0.173205 -0.439992 1.642074
v -0.200000 -0.465874 1.738667
v -0.173205 -0.491755 1.835259
v -0.100000 -0.510702 1.905970
v 0.000000 -0.765367 1.847759
v 0.100000 -0.755113 1.823003
v 0.173205 -0.727099 1.755371
v 0.200000 -0.688830 1.662983
v 0.173205 -0.650562 1.570595
v 0.100000 -0.622548 1.502962
v 0.000000 -0.612294 1.478207
v -0.100000 -0.622548 1.502962
v -0.173205 -0.650562 1.570595
v -0.200000 -0.688830 1.662983
v -0.173205 -0.727099 1.755371
v -0.100000 -0.755113 1.823003
v 0.000000 -1.000000 1.732051
v 0.100000 -0.986602 1.708846
v 0.173205 -0.950000 1.645448
v 0.200000 -0.900000 1.558846
v 0.173205 -0.850000 1.472243
v 0.100000 -0.813397 1.408846
v 0.000000 -0.800000 1.385641
v -0.100000 -0.813397 1.408846
v -0.173205 -0.850000 1.472243
v -0.200000 -0.900000 1.558846
v -0.173205 -0.950000 1.645448
v -0.100000 -0.986602 1.708846
v 0.000000 -1.217523 1.586707
v 0.100000 -1.201211 1.565449
v 0.173205 -1.156646 1.507372
v 0.200000 -1.095770 1.428036
v 0.173205 -1.034894 1.348701
v 0.100000 -0.990330 1.290623
v 0.000000 -0.974018 1.269366
v -0.100000 -0.990330 1.290623
v -0.173205 -1.034894 1.348701
v -0.200000 -1.095770 1.428036
v -0.173205 -1.156646 1.507372
v -0.100000 -1.201211 1.565449
v 0.000000 -1.414213 1.414214
v 0.100000 -1.395266 1.395267
v 0.173205 -1.343502 1.343504
v 0.200000 -1.272792 1.272793
v 0.173205 -1.202081 1.202082
v 0.100000 -1.150317 1.150318
v 0.000000 -1.131370 1.131371
v -0.100000 -1.150317 1.150318
v -0.173205 -1.202081 1.202082
v -0.200000 -1.272792 1.272793
v -0.173205 -1.343502 1.343504
v -0.100000 -1.395266 1.395267
v 0.000000 -1.586707 1.217523
v 0.100000 -1.565449 1.201211
v 0.173205 -1.507372 1.156647
v 0.200000 -1.428036 1.095770
v 0.173205 -1.348701 1.034894
v 0.100000 -1.290623 0.990330
v 0.000000 -1.269365 0.974018
v -0.100000 -1.290623 0.990330
v -0.173205 -1.348701 1.034894
v -0.200000 -1.428036 1.095770
v -0.173205 -1.507372 1.156647
v -0.100000 -1.565449 1.201211
v 0.000000 -1.732051 1.000000
v 0.100000 -1.708845 0.986603
v 0.173205 -1.645448 0.950000
v 0.200000 -1.558846 0.900000
v 0.173205 -1.472243 0.850000
v 0.100000 -1.408846 0.813398
v 0.000000 -1.385640 0.800000
v -0.100000 -1.408846 0.813398
v -0.173205 -1.472243 0.850000
v -0.200000 -1.558846 0.900000
v -0.173205 -1.645448 0.950000
v -0.100000 -1.708845 0.986603
v 0.000000 -1.847759 0.765368
v 0.100000 -1.823003 0.755114
v 0.173205 -1.755371 0.727099
v 0.200000 -1.662983 0.688831
v 0.173205 -1.570595 0.650562
v 0.100000 -1.502962 0.622548
v 0.000000 -1.478207 0.612294
v -0.100000 -1.502962 0.622548
v -0.173205 -1.570595 0.650562
v -0.200000 -1.662983 0.688831
v -0.173205 -1.755371 0.727099
v -0.100000 -1.823003 0.755114
v 0.000000 -1.931852 0.517638
v 0.100000 -1.905970 0.510702
v 0.173205 -1.835259 0.491756
v 0.200000 -1.738667 0.465874
v 0.173205 -1.642074 0.439992
v 0.100000 -1.571363 0.421045
v 0.000000 -1.545481 0.414110
v -0.100000 -1.571363 0.421045
v -0.173205 -1.642074 0.439992
v -0.200000 -1.738667 0.465874
v -0.173205 -1.835259 0.491756
v -0.100000 -1.905970 0.510702
v 0.000000 -1.982890 0.261052
v 0.100000 -1.956324 0.257555
v 0.173205 -1.883745 0.248000
v 0.200000 -1.784601 0.234947
v 0.173205 -1.685456 0.221894
v 0.100000 -1.612878 0.212339
v 0.000000 -1.586312 0.208842
v -0.100000 -1.612878 0.212339
v -0.173205 -1.685456 0.221894
v -0.200000 -1.784601 0.234947
v -0.173205 -1.883745 0.248000
v -0.100000 -1.956324 0.257555
usemtl None
s off
f 1 13 14 2
f 2 14 15 3
f 3 15 16 4
f 4 16 17 5
f 5 17 18 6
f 6 18 19 7
f 7 19 20 8
f 8 20 21 9
f 9 21 22 10
f 10 22 23 11
f 11 23 24 12
f 1 12 24 13
f 13 25 26 14
f 14 26 27 15
f 15 27 28 16
f 16 28 29 17
f 17 29 30 18
f 18 30 31 19
f 19 31 32 20
f 20 32 33 21
f 21 33 34 22
f 22 34 35 23
f 23 35 36 24
f 24 36 25 13
f 25 37 38 26
f 26 38 39 27
f 27 39 40 28
f 28 40 41 29
f 29 41 42 30
f 30 42 43 31
f 31 43 44 32
f 32 44 45 33
f 33 45 46 34
f 34 46 47 35
f 35 47 48 36
f 36 48 37 25
f 37 49 50 38
f 38 50 51 39
f 39 51 52 40
f 40 52 53 41
f 41 53 54 42
f 42 54 55 43
f 43 55 56 44
f 44 56 57 45
f 45 57 58 46
f 46 58 59 47
f 47 59 60 48
f 48 60 49 37
f 49 61 62 50
f 50 62 63 51
f 51 63 64 52
f 52 64 65 53
f 53 65 66 54
f 54 66 67 55
f 55 67 68 56
f 56 68 69 57
f 57 69 70 58
f 58 70 71 59
f 59 71 72 60
f 60 72 61 49
f 61 73 74 62
f 62 74 75 63
f 63 75 76 64
f 64 76 77 65
f 65 77 78 66
f 66 78 79 67
f 67 79 80 68
f 68 80 81 69
f 69 81 82 70
f 70 82 83 71
f 71 83 84 72
f 72 84 73 61
f 73 85 86 74
f 74 86 87 75
f 75 87 88 76
f 76 88 89 77
f 77 89 90 78
f 78 90 91 79
f 79 91 92 80
f 80 92 93 81
f 81 93 94 82
f 82 94 95 83
f 83 95 96 84
f 84 96 85 73
f 85 97 98 86
f 86 98 99 87
f 87 99 100 88
f 88 100 101 89
f 89 101 102 90
f 90 102 103 91
f 91 103 104 92
f 92 104 105 93
f 93 105 106 94
f 94 106 107 95
f 95 107 108 96
f 96 108 97 85
f 97 109 110 98
f 98 110 111 99
f 99 111 112 100
f 100 112 113 101
f 101 113 114 102
f 102 114 115 103
f 103 115 116 104
f 104 116 117 105
f 105 117 118 106
f 106 118 119 107
f 107 119 120 108
f 108 120 109 97
f 109 121 122 110
f 110 122 123 111
f 111 123 124 112
f 112 124 125 113
f 113 125 126 114
f 114 126 127 115
f 115 127 128 116
f 116 128 129 117
f 117 129 130 118
f 118 130 131 119
f 119 131 132 120
f 120 132 121 109
f 121 133 134 122
f 122 134 135 123
f 123 135 136 124
f 124 136 137 125
f 125 137 138 126
f 126 138 139 127
f 127 139 140 128
f 128 140 141 129
f 129 141 142 130
f 130 142 143 131
f 131 143 144 132
f 132 144 133 121
f 133 145 146 134
f 134 146 147 135
f 135 147 148 136
f 136 148 149 137
f 137 149 150 138
f 138 150 151 139
f 139 151 152 140
f 140 152 153 141
f 141 153 154 142
f 142 154 155 143
f 143 155 156 144
f 144 156 145 133
f 145 157 158 146
f 146 158 159 147
f 147 159 160 148
f 148 160 161 149
f 149 161 162 150
f 150 162 163 151
f 151 163 164 152
f 152 164 165 153
f 153 165 166 154
f 154 166 167 155
f 155 167 168 156
f 156 168 157 145
f 157 169 170 158
f 158 170 171 159
f 159 171 172 160
f 160 172 173 161
f 161 173 174 162
f 162 174 175 163
f 163 175 176 164
f 164 176 177 165
f 165 177 178 166
f 166 178 179 167
f 167 179 180 168
f 168 180 169 157
f 169 181 182 170
f 170 182 183 171
f 171 183 184 172
f 172 184 185 173
f 173 185 186 174
f 174 186 187 175
f 175 187 188 176
f 176 188 189 177
f 177 189 190 178
f 178 190 191 179
f 179 191 192 180
f 180 192 181 169
f 181 193 194 182
f 182 194 195 183
f 183 195 196 184
f 184 196 197 185
f 185 197 198 186
f 186 198 199 187
f 187 199 200 188
f 188 200 201 189
f 189 201 202 190
f 190 202 203 191
f 191 203 204 192
f 192 204 193 181
f 193 205 206 194
f 194 206 207 195
f 195 207 208 196
f 196 208 209 197
f 197 209 210 198
f 198 210 211 199
f 199 211 212 200
f 200 212 213 201
f 201 213 214 202
f 202 214 215 203
f 203 215 216 204
f 204 216 205 193
f 205 217 218 206
f 206 218 219 207
f 207 219 220 208
f 208 220 221 209
f 209 221 222 210
f 210 222 223 211
f 211 223 224 212
f 212 224 225 213
f 213 225 226 214
f 214 226 227 215
f 215 227 228 216
f 216 228 217 205
f 217 229 230 218
f 218 230 231 219
f 219 231 232 220
f 220 232 233 221
f 221 233 234 222
f 222 234 235 223
f 223 235 236 224
f 224 236 237 225
f 225 237 238 226
f 226 238 239 227
f 227 239 240 228
f 228 240 229 217
f 229 241 242 230
f 230 242 243 231
f 231 243 244 232
f 232 244 245 233
f 233 245 246 234
f 234 246 247 235
f 235 247 248 236
f 236 248 249 237
f 237 249 250 238
f 238 250 251 239
f 239 251 252 240
f 240 252 241 229
f 241 253 254 242
f 242 254 255 243
f 243 255 256 244
f 244 256 257 245
f 245 257 258 246
f 246 258 259 247
f 247 259 260 248
f 248 260 261 249
f 249 261 262 250
f 250 262 263 251
f 251 263 264 252
f 252 264 253 241
f 253 265 266 254
f 254 266 267 255
f 255 267 268 256
f 256 268 269 257
f 257 269 270 258
f 258 270 271 259
f 259 271 272 260
f 260 272 273 261
f 261 273 274 262
f 262 274 275 263
f 263 275 276 264
f 264 276 265 253
f 265 277 278 266
f 266 278 279 267
f 267 279 280 268
f 268 280 281 269
f 269 281 282 270
f 270 282 283 271
f 271 283 284 272
f 272 284 285 273
f 273 285 286 274
f 274 286 287 275
f 275 287 288 276
f 276 288 277 265
f 277 289 290 278
f 278 290 291 279
f 279 291 292 280
f 280 292 293 281
f 281 293 294 282
f 282 294 295 283
f 283 295 296 284
f 284 296 297 285
f 285 297 298 286
f 286 298 299 287
f 287 299 300 288
f 288 300 289 277
f 289 301 302 290
f 290 302 303 291
f 291 303 304 292
f 292 304 305 293
f 293 305 306 294
f 294 306 307 295
f 295 307 308 296
f 296 308 309 297
f 297 309 310 298
f 298 310 311 299
f 299 311 312 300
f 300 312 301 289
f 301 313 314 302
f 302 314 315 303
f 303 315 316 304
f 304 316 317 305
f 305 317 318 306
f 306 318 319 307
f 307 319 320 308
f 308 320 321 309
f 309 321 322 310
f 310 322 323 311
f 311 323 324 312
f 312 324 313 301
f 313 325 326 314
f 314 326 327 315
f 315 327 328 316
f 316 328 329 317
f 317 329 330 318
f 318 330 331 319
f 319 331 332 320
f 320 332 333 321
f 321 333 334 322
f 322 334 335 323
f 323 335 336 324
f 324 336 325 313
f 325 337 338 326
f 326 338 339 327
f 327 339 340 328
f 328 340 341 329
f 329 341 342 330
f 330 342 343 331
f 331 343 344 332
f 332 344 345 333
f 333 345 346 334
f 334 346 347 335
f 335 347 348 336
f 336 348 337 325
f 337 349 350 338
f 338 350 351 339
f 339 351 352 340
f 340 352 353 341
f 341 353 354 342
f 342 354 355 343
f 343 355 356 344
f 344 356 357 345
f 345 357 358 346
f 346 358 359 347
f 347 359 360 348
f 348 360 349 337
f 349 361 362 350
f 350 362 363 351
f 351 363 364 352
f 352 364 365 353
f 353 365 366 354
f 354 366 367 355
f 355 367 368 356
f 356 368 369 357
f 357 369 370 358
f 358 370 371 359
f 359 371 372 360
f 360 372 361 349
f 361 373 374 362
f 362 374 375 363
f 363 375 376 364
f 364 376 377 365
f 365 377 378 366
f 366 378 379 367
f 367 379 380 368
f 368 380 381 369
f 369 381 382 370
f 370 382 383 371
f 371 383 384 372
f 372 384 373 361
f 373 385 386 374
f 374 386 387 375
f 375 387 388 376
f 376 388 389 377
f 377 389 390 378
f 378 390 391 379
f 379 391 392 380
f 380 392 393 381
f 381 393 394 382
f 382 394 395 383
f 383 395 396 384
f 384 396 385 373
f 385 397 398 386
f 386 398 399 387
f 387 399 400 388
f 388 400 401 389
f 389 401 402 390
f 390 402 403 391
f 391 403 404 392
f 392 404 405 393
f 393 405 406 394
f 394 406 407 395
f 395 407 408 396
f 396 408 397 385
f 397 409 410 398
f 398 410 411 399
f 399 411 412 400
f 400 412 413 401
f 401 413 414 402
f 402 414 415 403
f 403 415 416 404
f 404 416 417 405
f 405 417 418 406
f 406 418 419 407
f 407 419 420 408
f 408 420 409 397
f 409 421 422 410
f 410 422 423 411
f 411 423 424 412
f 412 424 425 413
f 413 425 426 414
f 414 426 427 415
f 415 427 428 416
f 416 428 429 417
f 417 429 430 418
f 418 430 431 419
f 419 431 432 420
f 420 432 421 409
f 421 433 434 422
f 422 434 435 423
f 423 435 436 424
f 424 436 437 425
f 425 437 438 426
f 426 438 439 427
f 427 439 440 428
f 428 440 441 429
f 429 441 442 430
f 430 442 443 431
f 431 443 444 432
f 432 444 433 421
f 433 445 446 434
f 434 446 447 435
f 435 447 448 436
f 436 448 449 437
f 437 449 450 438
f 438 450 451 439
f 439 451 452 440
f 440 452 453 441
f 441 453 454 442
f 442 454 455 443
f 443 455 456 444
f 444 456 445 433
f 445 457 458 446
f 446 458 459 447
f 447 459 460 448
f 448 460 461 449
f 449 461 462 450
f 450 462 463 451
f 451 463 464 452
f 452 464 465 453
f 453 465 466 454
f 454 466 467 455
f 455 467 468 456
f 456 468 457 445
f 457 469 470 458
f 458 470 471 459
f 459 471 472 460
f 460 472 473 461
f 461 473 474 462
f 462 474 475 463
f 463 475 476 464
f 464 476 477 465
f 465 477 478 466
f 466 478 479 467
f 467 479 480 468
f 468 480 469 457
f 469 481 482 470
f 470 482 483 471
f 471 483 484 472
f 472 484 485 473
f 473 485 486 474
f 474 486 487 475
f 475 487 488 476
f 476 488 489 477
f 477 489 490 478
f 478 490 491 479
f 479 491 492 480
f 480 492 481 469
f 481 493 494 482
f 482 494 495 483
f 483 495 496 484
f 484 496 497 485
f 485 497 498 486
f 486 498 499 487
f 487 499 500 488
f 488 500 501 489
f 489 501 502 490
f 490 502 503 491
f 491 503 504 492
f 492 504 493 481
f 493 505 506 494
f 494 506 507 495
f 495 507 508 496
f 496 508 509 497
f 497 509 510 498
f 498 510 511 499
f 499 511 512 500
f 500 512 513 501
f 501 513 514 502
f 502 514 515 503
f 503 515 516 504
f 504 516 505 493
f 505 517 518 506
f 506 518 519 507
f 507 519 520 508
f 508 520 521 509
f 509 521 522 510
f 510 522 523 511
f 511 523 524 512
f 512 524 525 513
f 513 525 526 514
f 514 526 527 515
f 515 527 528 516
f 516 528 517 505
f 517 529 530 518
f 518 530 531 519
f 519 531 532 520
f 520 532 533 521
f 521 533 534 522
f 522 534 535 523
f 523 535 536 524
f 524 536 537 525
f 525 537 538 526
f 526 538 539 527
f 527 539 540 528
f 528 540 529 517
f 529 541 542 530
f 530 542 543 531
f 531 543 544 532
f 532 544 545 533
f 533 545 546 534
f 534 546 547 535
f 535 547 548 536
f 536 548 549 537
f 537 549 550 538
f 538 550 551 539
f 539 551 552 540
f 540 552 541 529
f 541 553 554 542
f 542 554 555 543
f 543 555 556 544
f 544 556 557 545
f 545 557 558 546
f 546 558 559 547
f 547 559 560 548
f 548 560 561 549
f 549 561 562 550
f 550 562 563 551
f 551 563 564 552
f 552 564 553 541
f 553 565 566 554
f 554 566 567 555
f 555 567 568 556
f 556 568 569 557
f 557 569 570 558
f 558 570 571 559
f 559 571 572 560
f 560 572 573 561
f 561 573 574 562
f 562 574 575 563
f 563 575 576 564
f 564 576 565 553
f 565 1 2 566
f 566 2 3 567
f 567 3 4 568
f 568 4 5 569
f 569 5 6 570
f 570 6 7 571
f 571 7 8 572
f 572 8 9 573
f 573 9 10 574
f 574 10 11 575
f 575 11 12 576
f 576 12 1 565
