[gd_resource type="SampleLibrary" load_steps=4 format=1]

[ext_resource path="res://assets/audio/laser1.wav" type="Sample" id=1]
[ext_resource path="res://assets/audio/threeTone2.wav" type="Sample" id=2]
[ext_resource path="res://assets/audio/lowRandom.wav" type="Sample" id=3]

[resource]

samples/dead = { "db":0.0, "pitch":1.0, "sample":ExtResource( 1 ) }
samples/goal = { "db":0.0, "pitch":1.0, "sample":ExtResource( 2 ) }
samples/turn = { "db":0.0, "pitch":1.0, "sample":ExtResource( 3 ) }

